%YAML 1.1
%TAG !u! tag:unity3d.com,2011:
--- !u!1045 &1
EditorBuildSettings:
  m_ObjectHideFlags: 0
  serializedVersion: 2
  m_Scenes:
  - enabled: 0
    path: Assets/Scenes/SampleScene.unity
    guid: 99c9720ab356a0642a771bea13969a05
  - enabled: 1
    path: Assets/Scenes/Main Menu.unity
    guid: 789e49f64d40dd340bccad828c5dc4e8
  - enabled: 1
    path: Assets/Scenes/main.unity
    guid: 0325150b50ef40343b918605a229df08
  m_configObjects: {}
