[
    {
        "id": 1,
        "title": "boxing",
        "num": 1
    },
    {
        "id": 2,
        "title": "drill",
        "num": 1
    },
    {
        "id": 3,
        "title": "stick",
        "num": 1
    },
    {
        "id": 4,
        "title": "ray",
        "num": 2
    },
    {
        "id": 5,
        "title": "tesla",
        "num": 2
    },
    {
        "id": 6,
        "title": "assault",
        "num": 2
    }

]