%YAML 1.1
%TAG !u! tag:unity3d.com,2011:
--- !u!78 &1
TagManager:
  serializedVersion: 2
  tags:
  - Enemy
  - Boost
  - Arena
  - Arms
  - Drop
  - Bullet
  - Enemy1
  - slot1
  - slot2
  - slot3
  - slot4
  - slot5
  - slot6
  - InventoryPanel
  - finalscore
  - finalround
  - gameover
  - quitbtn
  - playbtn
  - enAssault
  - enRay
  - enTesla
  layers:
  - Default
  - TransparentFX
  - Ignore Raycast
  - 
  - Water
  - UI
  - 
  - 
  - PostProcessing
  - ItemDrop
  - Player
  - UI INV BACK
  - UI INV SLOTS
  - UI INV MENU
  - 
  - 
  - 
  - 
  - 
  - 
  - 
  - 
  - 
  - 
  - 
  - 
  - 
  - 
  - 
  - 
  - 
  - 
  m_SortingLayers:
  - name: Default
    uniqueID: 0
    locked: 0
  - name: Ground
    uniqueID: 4029492453
    locked: 0
  - name: ItemDrop
    uniqueID: 1999879307
    locked: 0
  - name: Enemies
    uniqueID: 1369733463
    locked: 0
  - name: Player
    uniqueID: 3117802949
    locked: 0
