%YAML 1.1
%TAG !u! tag:unity3d.com,2011:
--- !u!29 &1
OcclusionCullingSettings:
  m_ObjectHideFlags: 0
  serializedVersion: 2
  m_OcclusionBakeSettings:
    smallestOccluder: 5
    smallestHole: 0.25
    backfaceThreshold: 100
  m_SceneGUID: 00000000000000000000000000000000
  m_OcclusionCullingData: {fileID: 0}
--- !u!104 &2
RenderSettings:
  m_ObjectHideFlags: 0
  serializedVersion: 9
  m_Fog: 0
  m_FogColor: {r: 0.5, g: 0.5, b: 0.5, a: 1}
  m_FogMode: 3
  m_FogDensity: 0.01
  m_LinearFogStart: 0
  m_LinearFogEnd: 300
  m_AmbientSkyColor: {r: 0.212, g: 0.227, b: 0.259, a: 1}
  m_AmbientEquatorColor: {r: 0.114, g: 0.125, b: 0.133, a: 1}
  m_AmbientGroundColor: {r: 0.047, g: 0.043, b: 0.035, a: 1}
  m_AmbientIntensity: 1
  m_AmbientMode: 3
  m_SubtractiveShadowColor: {r: 0.42, g: 0.478, b: 0.627, a: 1}
  m_SkyboxMaterial: {fileID: 0}
  m_HaloStrength: 0.5
  m_FlareStrength: 1
  m_FlareFadeSpeed: 3
  m_HaloTexture: {fileID: 0}
  m_SpotCookie: {fileID: 10001, guid: 0000000000000000e000000000000000, type: 0}
  m_DefaultReflectionMode: 0
  m_DefaultReflectionResolution: 128
  m_ReflectionBounces: 1
  m_ReflectionIntensity: 1
  m_CustomReflection: {fileID: 0}
  m_Sun: {fileID: 0}
  m_IndirectSpecularColor: {r: 0, g: 0, b: 0, a: 1}
  m_UseRadianceAmbientProbe: 0
--- !u!157 &3
LightmapSettings:
  m_ObjectHideFlags: 0
  serializedVersion: 11
  m_GIWorkflowMode: 1
  m_GISettings:
    serializedVersion: 2
    m_BounceScale: 1
    m_IndirectOutputScale: 1
    m_AlbedoBoost: 1
    m_TemporalCoherenceThreshold: 1
    m_EnvironmentLightingMode: 0
    m_EnableBakedLightmaps: 0
    m_EnableRealtimeLightmaps: 0
  m_LightmapEditorSettings:
    serializedVersion: 10
    m_Resolution: 2
    m_BakeResolution: 40
    m_AtlasSize: 1024
    m_AO: 0
    m_AOMaxDistance: 1
    m_CompAOExponent: 1
    m_CompAOExponentDirect: 0
    m_Padding: 2
    m_LightmapParameters: {fileID: 0}
    m_LightmapsBakeMode: 1
    m_TextureCompression: 1
    m_FinalGather: 0
    m_FinalGatherFiltering: 1
    m_FinalGatherRayCount: 256
    m_ReflectionCompression: 2
    m_MixedBakeMode: 2
    m_BakeBackend: 0
    m_PVRSampling: 1
    m_PVRDirectSampleCount: 32
    m_PVRSampleCount: 500
    m_PVRBounces: 2
    m_PVRFilterTypeDirect: 0
    m_PVRFilterTypeIndirect: 0
    m_PVRFilterTypeAO: 0
    m_PVRFilteringMode: 1
    m_PVRCulling: 1
    m_PVRFilteringGaussRadiusDirect: 1
    m_PVRFilteringGaussRadiusIndirect: 5
    m_PVRFilteringGaussRadiusAO: 2
    m_PVRFilteringAtrousPositionSigmaDirect: 0.5
    m_PVRFilteringAtrousPositionSigmaIndirect: 2
    m_PVRFilteringAtrousPositionSigmaAO: 1
    m_ShowResolutionOverlay: 1
  m_LightingDataAsset: {fileID: 0}
  m_UseShadowmask: 1
--- !u!196 &4
NavMeshSettings:
  serializedVersion: 2
  m_ObjectHideFlags: 0
  m_BuildSettings:
    serializedVersion: 2
    agentTypeID: 0
    agentRadius: 0.5
    agentHeight: 2
    agentSlope: 45
    agentClimb: 0.4
    ledgeDropHeight: 0
    maxJumpAcrossDistance: 0
    minRegionArea: 2
    manualCellSize: 0
    cellSize: 0.16666667
    manualTileSize: 0
    tileSize: 256
    accuratePlacement: 0
    debug:
      m_Flags: 0
  m_NavMeshData: {fileID: 0}
--- !u!1001 &406492213
Prefab:
  m_ObjectHideFlags: 0
  serializedVersion: 2
  m_Modification:
    m_TransformParent: {fileID: 0}
    m_Modifications:
    - target: {fileID: 4196540454231210, guid: 0400eeba49451a944bbe299328012597, type: 2}
      propertyPath: m_LocalPosition.x
      value: 0
      objectReference: {fileID: 0}
    - target: {fileID: 4196540454231210, guid: 0400eeba49451a944bbe299328012597, type: 2}
      propertyPath: m_LocalPosition.y
      value: -10
      objectReference: {fileID: 0}
    - target: {fileID: 4196540454231210, guid: 0400eeba49451a944bbe299328012597, type: 2}
      propertyPath: m_LocalPosition.z
      value: -10
      objectReference: {fileID: 0}
    - target: {fileID: 4196540454231210, guid: 0400eeba49451a944bbe299328012597, type: 2}
      propertyPath: m_LocalRotation.x
      value: 0
      objectReference: {fileID: 0}
    - target: {fileID: 4196540454231210, guid: 0400eeba49451a944bbe299328012597, type: 2}
      propertyPath: m_LocalRotation.y
      value: 0
      objectReference: {fileID: 0}
    - target: {fileID: 4196540454231210, guid: 0400eeba49451a944bbe299328012597, type: 2}
      propertyPath: m_LocalRotation.z
      value: 0
      objectReference: {fileID: 0}
    - target: {fileID: 4196540454231210, guid: 0400eeba49451a944bbe299328012597, type: 2}
      propertyPath: m_LocalRotation.w
      value: 1
      objectReference: {fileID: 0}
    - target: {fileID: 4196540454231210, guid: 0400eeba49451a944bbe299328012597, type: 2}
      propertyPath: m_RootOrder
      value: 0
      objectReference: {fileID: 0}
    - target: {fileID: 114781177160840200, guid: 0400eeba49451a944bbe299328012597,
        type: 2}
      propertyPath: player
      value: 
      objectReference: {fileID: 715242693}
    m_RemovedComponents: []
  m_ParentPrefab: {fileID: 100100000, guid: 0400eeba49451a944bbe299328012597, type: 2}
  m_IsPrefabParent: 0
--- !u!1001 &585036534
Prefab:
  m_ObjectHideFlags: 0
  serializedVersion: 2
  m_Modification:
    m_TransformParent: {fileID: 0}
    m_Modifications:
    - target: {fileID: 4952528670163812, guid: a3d06876608f62c49bca4185174eae7e, type: 2}
      propertyPath: m_LocalPosition.x
      value: 0
      objectReference: {fileID: 0}
    - target: {fileID: 4952528670163812, guid: a3d06876608f62c49bca4185174eae7e, type: 2}
      propertyPath: m_LocalPosition.y
      value: 0
      objectReference: {fileID: 0}
    - target: {fileID: 4952528670163812, guid: a3d06876608f62c49bca4185174eae7e, type: 2}
      propertyPath: m_LocalPosition.z
      value: 1
      objectReference: {fileID: 0}
    - target: {fileID: 4952528670163812, guid: a3d06876608f62c49bca4185174eae7e, type: 2}
      propertyPath: m_LocalRotation.x
      value: 0
      objectReference: {fileID: 0}
    - target: {fileID: 4952528670163812, guid: a3d06876608f62c49bca4185174eae7e, type: 2}
      propertyPath: m_LocalRotation.y
      value: 0
      objectReference: {fileID: 0}
    - target: {fileID: 4952528670163812, guid: a3d06876608f62c49bca4185174eae7e, type: 2}
      propertyPath: m_LocalRotation.z
      value: 0
      objectReference: {fileID: 0}
    - target: {fileID: 4952528670163812, guid: a3d06876608f62c49bca4185174eae7e, type: 2}
      propertyPath: m_LocalRotation.w
      value: 1
      objectReference: {fileID: 0}
    - target: {fileID: 4952528670163812, guid: a3d06876608f62c49bca4185174eae7e, type: 2}
      propertyPath: m_RootOrder
      value: 2
      objectReference: {fileID: 0}
    m_RemovedComponents: []
  m_ParentPrefab: {fileID: 100100000, guid: a3d06876608f62c49bca4185174eae7e, type: 2}
  m_IsPrefabParent: 0
--- !u!1 &715242693 stripped
GameObject:
  m_PrefabParentObject: {fileID: 1357831099963784, guid: 412d66f2fc1d2224f8a91f03783c34b7,
    type: 2}
  m_PrefabInternal: {fileID: 816199181}
--- !u!114 &715242694
MonoBehaviour:
  m_ObjectHideFlags: 0
  m_PrefabParentObject: {fileID: 0}
  m_PrefabInternal: {fileID: 0}
  m_GameObject: {fileID: 715242693}
  m_Enabled: 0
  m_EditorHideFlags: 0
  m_Script: {fileID: 11500000, guid: d2bde8adeedd0994faf692c1c5861792, type: 3}
  m_Name: 
  m_EditorClassIdentifier: 
  speed: 20
  fireRate: 0.2
  shotSpawn: {fileID: 715242697}
  shot: {fileID: 1925718204900444, guid: c729f1eab8d0cc8408aeabde6fc26120, type: 2}
  ShotingPositionleft: -2
  ShotingPositionright: 0
--- !u!4 &715242697 stripped
Transform:
  m_PrefabParentObject: {fileID: 4122659798873198, guid: 412d66f2fc1d2224f8a91f03783c34b7,
    type: 2}
  m_PrefabInternal: {fileID: 816199181}
--- !u!114 &715242698
MonoBehaviour:
  m_ObjectHideFlags: 0
  m_PrefabParentObject: {fileID: 0}
  m_PrefabInternal: {fileID: 0}
  m_GameObject: {fileID: 715242693}
  m_Enabled: 1
  m_EditorHideFlags: 0
  m_Script: {fileID: 11500000, guid: d2bde8adeedd0994faf692c1c5861792, type: 3}
  m_Name: 
  m_EditorClassIdentifier: 
  speed: 20
  fireRate: 0.2
  shotSpawn: {fileID: 715242697}
  shot: {fileID: 1925718204900444, guid: c729f1eab8d0cc8408aeabde6fc26120, type: 2}
  ShotingPositionleft: -2
  ShotingPositionright: 0
--- !u!1001 &816199181
Prefab:
  m_ObjectHideFlags: 0
  serializedVersion: 2
  m_Modification:
    m_TransformParent: {fileID: 0}
    m_Modifications:
    - target: {fileID: 4122659798873198, guid: 412d66f2fc1d2224f8a91f03783c34b7, type: 2}
      propertyPath: m_LocalPosition.x
      value: 0
      objectReference: {fileID: 0}
    - target: {fileID: 4122659798873198, guid: 412d66f2fc1d2224f8a91f03783c34b7, type: 2}
      propertyPath: m_LocalPosition.y
      value: -10
      objectReference: {fileID: 0}
    - target: {fileID: 4122659798873198, guid: 412d66f2fc1d2224f8a91f03783c34b7, type: 2}
      propertyPath: m_LocalPosition.z
      value: 0
      objectReference: {fileID: 0}
    - target: {fileID: 4122659798873198, guid: 412d66f2fc1d2224f8a91f03783c34b7, type: 2}
      propertyPath: m_LocalRotation.x
      value: 0
      objectReference: {fileID: 0}
    - target: {fileID: 4122659798873198, guid: 412d66f2fc1d2224f8a91f03783c34b7, type: 2}
      propertyPath: m_LocalRotation.y
      value: 0
      objectReference: {fileID: 0}
    - target: {fileID: 4122659798873198, guid: 412d66f2fc1d2224f8a91f03783c34b7, type: 2}
      propertyPath: m_LocalRotation.z
      value: 0
      objectReference: {fileID: 0}
    - target: {fileID: 4122659798873198, guid: 412d66f2fc1d2224f8a91f03783c34b7, type: 2}
      propertyPath: m_LocalRotation.w
      value: 1
      objectReference: {fileID: 0}
    - target: {fileID: 4122659798873198, guid: 412d66f2fc1d2224f8a91f03783c34b7, type: 2}
      propertyPath: m_RootOrder
      value: 1
      objectReference: {fileID: 0}
    - target: {fileID: 1357831099963784, guid: 412d66f2fc1d2224f8a91f03783c34b7, type: 2}
      propertyPath: m_Name
      value: player
      objectReference: {fileID: 0}
    - target: {fileID: 114245100347442600, guid: 412d66f2fc1d2224f8a91f03783c34b7,
        type: 2}
      propertyPath: fireRate
      value: 0.1
      objectReference: {fileID: 0}
    - target: {fileID: 114245100347442600, guid: 412d66f2fc1d2224f8a91f03783c34b7,
        type: 2}
      propertyPath: ShotingPosition
      value: -1
      objectReference: {fileID: 0}
    m_RemovedComponents:
    - {fileID: 114245100347442600, guid: 412d66f2fc1d2224f8a91f03783c34b7, type: 2}
  m_ParentPrefab: {fileID: 100100000, guid: 412d66f2fc1d2224f8a91f03783c34b7, type: 2}
  m_IsPrefabParent: 0
--- !u!1001 &928426491
Prefab:
  m_ObjectHideFlags: 0
  serializedVersion: 2
  m_Modification:
    m_TransformParent: {fileID: 0}
    m_Modifications:
    - target: {fileID: 4945806506100092, guid: 6daf90b5ce093ad449d9dde3526ae389, type: 2}
      propertyPath: m_LocalPosition.x
      value: 0
      objectReference: {fileID: 0}
    - target: {fileID: 4945806506100092, guid: 6daf90b5ce093ad449d9dde3526ae389, type: 2}
      propertyPath: m_LocalPosition.y
      value: 7.53
      objectReference: {fileID: 0}
    - target: {fileID: 4945806506100092, guid: 6daf90b5ce093ad449d9dde3526ae389, type: 2}
      propertyPath: m_LocalPosition.z
      value: 0
      objectReference: {fileID: 0}
    - target: {fileID: 4945806506100092, guid: 6daf90b5ce093ad449d9dde3526ae389, type: 2}
      propertyPath: m_LocalRotation.x
      value: 0
      objectReference: {fileID: 0}
    - target: {fileID: 4945806506100092, guid: 6daf90b5ce093ad449d9dde3526ae389, type: 2}
      propertyPath: m_LocalRotation.y
      value: 0
      objectReference: {fileID: 0}
    - target: {fileID: 4945806506100092, guid: 6daf90b5ce093ad449d9dde3526ae389, type: 2}
      propertyPath: m_LocalRotation.z
      value: 0
      objectReference: {fileID: 0}
    - target: {fileID: 4945806506100092, guid: 6daf90b5ce093ad449d9dde3526ae389, type: 2}
      propertyPath: m_LocalRotation.w
      value: 1
      objectReference: {fileID: 0}
    - target: {fileID: 4945806506100092, guid: 6daf90b5ce093ad449d9dde3526ae389, type: 2}
      propertyPath: m_RootOrder
      value: 3
      objectReference: {fileID: 0}
    - target: {fileID: 114018408310795882, guid: 6daf90b5ce093ad449d9dde3526ae389,
        type: 2}
      propertyPath: hazardCount
      value: 10
      objectReference: {fileID: 0}
    - target: {fileID: 114018408310795882, guid: 6daf90b5ce093ad449d9dde3526ae389,
        type: 2}
      propertyPath: spawnWait
      value: 1
      objectReference: {fileID: 0}
    - target: {fileID: 114018408310795882, guid: 6daf90b5ce093ad449d9dde3526ae389,
        type: 2}
      propertyPath: LIMIT
      value: 10
      objectReference: {fileID: 0}
    m_RemovedComponents: []
  m_ParentPrefab: {fileID: 100100000, guid: 6daf90b5ce093ad449d9dde3526ae389, type: 2}
  m_IsPrefabParent: 0
